Categories:Internet
License:GPLv3
Web Site:
Source Code:https://github.com/siacs/Conversations
Issue Tracker:https://github.com/siacs/Conversations/issues

Auto Name:Conversations
Summary:XMPP client
Description:
XMPP client designed with ease of use and security in mind.

Features:
* end-to-end encryption with either OTR or openPGP
* Holo UI
* syncs with your desktop client
* group chats
* addressbook integration
* multiple accounts / unified inbox

Noteable XEPs:
* XEP-0198: Stream Management
* XEP-0280: Message Carbons
* XEP-0237: Roster Versioning

[https://github.com/siacs/Conversations/blob/development/CHANGELOG.md Changelog]
.

Repo Type:git
Repo:https://github.com/siacs/Conversations.git

Build:0.1.3,9
    disable=prebuild jars
    commit=0.1.3
    submodules=yes
    srclibs=Otr4j-jitsi@33d95bb3710986d048fb4cbe42dc991f9ddd9de2,BouncyCastle@r1rv50
    rm=libs/android-support-v4.jar
    extlibs=android/android-support-v4.jar
    scanignore=libs/otr4j-0.10.jar,libs/bcprov-jdk15on-150.jar

Build:0.2.1,12
    commit=0.2.1
    submodules=yes
    srclibs=Otr4j-jitsi@30fbaea9388616b268de82be0267acf2441b218b,BouncyCastle@r1rv50
    rm=libs/bcprov-jdk15on-150.jar,libs/otr4j-0.10.jar
    prebuild=pushd $$BouncyCastle$$ && \
        ant -f ant/jdk15+.xml build-provider && \
        popd && \
        cp $$BouncyCastle$$/build/artifacts/jdk1.5/jars/bcprov-jdk15on-150.jar libs/ && \
        pushd $$Otr4j-jitsi$$ && \
        mvn clean && \
        mvn package && \
        popd && \
        cp $$Otr4j-jitsi$$/target/otr4j-0.10.jar libs/
    scanignore=libs/otr4j-0.10.jar,libs/bcprov-jdk15on-150.jar

Build:0.2.2,13
    commit=0.2.2
    submodules=yes
    srclibs=Otr4j-jitsi@30fbaea9388616b268de82be0267acf2441b218b,BouncyCastle@r1rv50
    rm=libs/bcprov-jdk15on-150.jar,libs/otr4j-0.10.jar
    prebuild=pushd $$BouncyCastle$$ && \
        ant -f ant/jdk15+.xml build-provider && \
        popd && \
        cp $$BouncyCastle$$/build/artifacts/jdk1.5/jars/bcprov-jdk15on-150.jar libs/ && \
        pushd $$Otr4j-jitsi$$ && \
        mvn clean && \
        mvn package && \
        popd && \
        cp $$Otr4j-jitsi$$/target/otr4j-0.10.jar libs/
    scanignore=libs/otr4j-0.10.jar,libs/bcprov-jdk15on-150.jar

Build:0.2.3,14
    commit=0.2.3
    submodules=yes
    srclibs=Otr4j-jitsi@30fbaea9388616b268de82be0267acf2441b218b,BouncyCastle@r1rv50
    rm=libs/bcprov-jdk15on-150.jar,libs/otr4j-0.10.jar
    prebuild=pushd $$BouncyCastle$$ && \
        ant -f ant/jdk15+.xml build-provider && \
        popd && \
        cp $$BouncyCastle$$/build/artifacts/jdk1.5/jars/bcprov-jdk15on-150.jar libs/ && \
        pushd $$Otr4j-jitsi$$ && \
        mvn clean && \
        mvn package && \
        popd && \
        cp $$Otr4j-jitsi$$/target/otr4j-0.10.jar libs/
    scanignore=libs/otr4j-0.10.jar,libs/bcprov-jdk15on-150.jar

Build:0.3,16
    commit=0.3
    submodules=yes
    srclibs=Otr4j-jitsi@30fbaea9388616b268de82be0267acf2441b218b,BouncyCastle@r1rv50
    rm=libs/bcprov-jdk15on-150.jar,libs/otr4j-0.10.jar
    prebuild=pushd $$BouncyCastle$$ && \
        ant -f ant/jdk15+.xml build-provider && \
        popd && \
        cp $$BouncyCastle$$/build/artifacts/jdk1.5/jars/bcprov-jdk15on-150.jar libs/ && \
        pushd $$Otr4j-jitsi$$ && \
        mvn clean && \
        mvn package && \
        popd && \
        cp $$Otr4j-jitsi$$/target/otr4j-0.10.jar libs/
    scanignore=libs/otr4j-0.10.jar,libs/bcprov-jdk15on-150.jar

Build:0.4,18
    commit=0.4
    submodules=yes
    srclibs=Otr4j-jitsi@30fbaea9388616b268de82be0267acf2441b218b,BouncyCastle@r1rv50
    rm=libs/bcprov-jdk15on-150.jar,libs/otr4j-0.10.jar
    prebuild=pushd $$BouncyCastle$$ && \
        ant -f ant/jdk15+.xml build-provider && \
        popd && \
        cp $$BouncyCastle$$/build/artifacts/jdk1.5/jars/bcprov-jdk15on-150.jar libs/ && \
        pushd $$Otr4j-jitsi$$ && \
        $$MVN3$$ clean && \
        $$MVN3$$ package && \
        popd && \
        cp $$Otr4j-jitsi$$/target/otr4j-0.10.jar libs/
    scanignore=libs/otr4j-0.10.jar,libs/bcprov-jdk15on-150.jar

Build:0.4.1,19
    commit=0.4.1
    submodules=yes
    srclibs=Otr4j-jitsi@30fbaea9388616b268de82be0267acf2441b218b,BouncyCastle@r1rv50
    rm=libs/bcprov-jdk15on-150.jar,libs/otr4j-0.10.jar
    prebuild=pushd $$BouncyCastle$$ && \
        ant -f ant/jdk15+.xml build-provider && \
        popd && \
        cp $$BouncyCastle$$/build/artifacts/jdk1.5/jars/bcprov-jdk15on-150.jar libs/ && \
        pushd $$Otr4j-jitsi$$ && \
        $$MVN3$$ clean && \
        $$MVN3$$ package && \
        popd && \
        cp $$Otr4j-jitsi$$/target/otr4j-0.10.jar libs/
    scanignore=libs/otr4j-0.10.jar,libs/bcprov-jdk15on-150.jar

Build:0.5,21
    commit=0.5
    submodules=yes
    srclibs=Otr4j-jitsi@30fbaea9388616b268de82be0267acf2441b218b,BouncyCastle@r1rv50
    rm=libs/bcprov-jdk15on-150.jar,libs/otr4j-0.10.jar
    prebuild=pushd $$BouncyCastle$$ && \
        ant -f ant/jdk15+.xml build-provider && \
        popd && \
        cp $$BouncyCastle$$/build/artifacts/jdk1.5/jars/bcprov-jdk15on-150.jar libs/ && \
        pushd $$Otr4j-jitsi$$ && \
        $$MVN3$$ clean && \
        $$MVN3$$ package && \
        popd && \
        cp $$Otr4j-jitsi$$/target/otr4j-0.10.jar libs/
    scanignore=libs/otr4j-0.10.jar,libs/bcprov-jdk15on-150.jar

Build:0.5.1,22
    commit=0.5.1
    submodules=yes
    srclibs=Otr4j-jitsi@30fbaea9388616b268de82be0267acf2441b218b,BouncyCastle@r1rv50
    rm=libs/bcprov-jdk15on-150.jar,libs/otr4j-0.10.jar
    prebuild=pushd $$BouncyCastle$$ && \
        ant -f ant/jdk15+.xml build-provider && \
        popd && \
        cp $$BouncyCastle$$/build/artifacts/jdk1.5/jars/bcprov-jdk15on-150.jar libs/ && \
        pushd $$Otr4j-jitsi$$ && \
        $$MVN3$$ clean && \
        $$MVN3$$ package && \
        popd && \
        cp $$Otr4j-jitsi$$/target/otr4j-0.10.jar libs/
    scanignore=libs/otr4j-0.10.jar,libs/bcprov-jdk15on-150.jar

Build:0.5.2,23
    commit=0.5.2
    submodules=yes
    srclibs=Otr4j-jitsi@30fbaea9388616b268de82be0267acf2441b218b,BouncyCastle@r1rv50
    rm=libs/bcprov-jdk15on-150.jar,libs/otr4j-0.10.jar
    prebuild=pushd $$BouncyCastle$$ && \
        ant -f ant/jdk15+.xml build-provider && \
        popd && \
        cp $$BouncyCastle$$/build/artifacts/jdk1.5/jars/bcprov-jdk15on-150.jar libs/ && \
        pushd $$Otr4j-jitsi$$ && \
        $$MVN3$$ clean && \
        $$MVN3$$ package && \
        popd && \
        cp $$Otr4j-jitsi$$/target/otr4j-0.10.jar libs/
    scanignore=libs/otr4j-0.10.jar,libs/bcprov-jdk15on-150.jar

Auto Update Mode:None
Update Check Mode:Tags
Current Version:0.5.2
Current Version Code:23

